%!PS-Adobe-3.0 EPSF-3.0
%%Creator: cairo 1.8.8 (http://cairographics.org)
%%CreationDate: Tue Nov 05 13:41:15 2013
%%Pages: 1
%%BoundingBox: 0 0 571 421
%%DocumentData: Clean7Bit
%%LanguageLevel: 2
%%EndComments
%%BeginProlog
/cairo_eps_state save def
/dict_count countdictstack def
/op_count count 1 sub def
userdict begin
/q { gsave } bind def
/Q { grestore } bind def
/cm { 6 array astore concat } bind def
/w { setlinewidth } bind def
/J { setlinecap } bind def
/j { setlinejoin } bind def
/M { setmiterlimit } bind def
/d { setdash } bind def
/m { moveto } bind def
/l { lineto } bind def
/c { curveto } bind def
/h { closepath } bind def
/re { exch dup neg 3 1 roll 5 3 roll moveto 0 rlineto
      0 exch rlineto 0 rlineto closepath } bind def
/S { stroke } bind def
/f { fill } bind def
/f* { eofill } bind def
/B { fill stroke } bind def
/B* { eofill stroke } bind def
/n { newpath } bind def
/W { clip } bind def
/W* { eoclip } bind def
/BT { } bind def
/ET { } bind def
/pdfmark where { pop globaldict /?pdfmark /exec load put }
    { globaldict begin /?pdfmark /pop load def /pdfmark
    /cleartomark load def end } ifelse
/BDC { mark 3 1 roll /BDC pdfmark } bind def
/EMC { mark /EMC pdfmark } bind def
/cairo_store_point { /cairo_point_y exch def /cairo_point_x exch def } def
/Tj { show currentpoint cairo_store_point } bind def
/TJ {
  {
    dup
    type /stringtype eq
    { show } { -0.001 mul 0 cairo_font_matrix dtransform rmoveto } ifelse
  } forall
  currentpoint cairo_store_point
} bind def
/cairo_selectfont { cairo_font_matrix aload pop pop pop 0 0 6 array astore
    cairo_font exch selectfont cairo_point_x cairo_point_y moveto } bind def
/Tf { pop /cairo_font exch def /cairo_font_matrix where
      { pop cairo_selectfont } if } bind def
/Td { matrix translate cairo_font_matrix matrix concatmatrix dup
      /cairo_font_matrix exch def dup 4 get exch 5 get cairo_store_point
      /cairo_font where { pop cairo_selectfont } if } bind def
/Tm { 2 copy 8 2 roll 6 array astore /cairo_font_matrix exch def
      cairo_store_point /cairo_font where { pop cairo_selectfont } if } bind def
/g { setgray } bind def
/rg { setrgbcolor } bind def
/d1 { setcachedevice } bind def
%%EndProlog
%%Page: 1 1
%%BeginPageSetup
%%PageBoundingBox: 0 0 571 421
%%EndPageSetup
q
0 g
384.719 0.995 m 380.754 2.292 380.098 2.944 380.547 5.124 c 381.051 
7.554 382.41 8.898 384.973 9.487 c 387.73 10.124 387.934 10.132 389.754 
9.691 c 391.316 9.308 391.598 9.663 390.727 10.917 c 390.336 11.476 
388.734 11.698 384.043 11.839 c 380.648 11.941 377.563 12.253 377.188 
12.53 c 376.434 13.085 368.504 13.194 366.703 12.675 c 366.082 12.495 
365.578 12.011 365.578 11.597 c 365.578 11.179 365.27 10.941 364.895 
11.066 c 364.52 11.187 363.781 11.085 363.254 10.839 c 362.559 10.515 
362.297 10.585 362.297 11.105 c 362.297 11.495 361.07 12.534 359.566 
13.409 c 358.063 14.288 356.836 15.206 356.836 15.452 c 356.836 15.698 
356.301 15.898 355.648 15.898 c 353.309 15.898 352.633 17.089 352.84 
20.835 c 352.957 22.96 352.805 24.409 352.438 24.616 c 352.043 24.839 
352.145 25.249 352.75 25.859 c 353.496 26.609 353.711 28.359 353.965 
35.788 c 354.133 40.749 354.441 44.554 354.648 44.249 c 355.188 43.456 
355.836 55.944 355.406 58.788 c 355.164 60.394 355.273 61.386 355.746 
61.909 c 356.648 62.898 356.508 67.042 355.293 75.331 c 354.77 78.89 
354.508 82.468 354.707 83.288 c 355.066 84.78 l 355.168 83.288 l 
355.227 82.468 355.484 81.351 355.742 80.804 c 356.172 79.89 356.215 
79.909 356.258 81.05 c 356.285 81.737 356.512 82.589 356.762 82.948 c 
357.43 83.909 358.473 78.624 358.473 74.288 c 358.473 71.214 359.078 
67.433 360.398 62.257 c 360.559 61.628 360.938 61.253 361.234 61.421 c 
361.566 61.609 361.691 63.866 361.559 67.155 c 361.438 70.191 361.551 
72.46 361.82 72.312 c 362.082 72.163 362.313 72.335 362.332 72.691 c 
362.352 73.05 362.602 72.808 362.891 72.151 c 363.828 70.019 363.941 
71.343 363.121 74.87 c 362.031 79.538 362.063 79.765 363.938 81.472 c 
364.957 82.401 365.449 83.257 365.242 83.749 c 365.063 84.179 365.184 
84.534 365.52 84.534 c 365.852 84.534 366.129 84.253 366.141 83.913 c 
366.164 83.093 368.375 80.827 369.559 80.413 c 370.223 80.183 370.492 
79.519 370.492 78.12 c 370.492 76.976 370.859 75.816 371.371 75.351 c 
371.852 74.913 372.598 73.276 373.027 71.71 c 373.461 70.148 374.09 
68.362 374.43 67.749 c 374.77 67.132 374.883 66.48 374.68 66.296 c 
374.48 66.112 374.734 65.538 375.25 65.023 c 376.016 64.253 376.051 
64.007 375.445 63.663 c 374.438 63.097 375.102 60.206 376.434 59.355 c 
376.992 58.999 377.609 57.804 377.801 56.698 c 378.184 54.519 379.168 
53.913 379.039 55.937 c 378.996 56.62 378.813 57.179 378.633 57.179 c 
378.453 57.179 378.309 59.921 378.316 63.273 c 378.324 68.433 378.398 
68.944 378.789 66.628 c 379.66 61.448 379.785 60.398 380.125 55.456 c 
380.375 51.816 380.73 50.171 381.465 49.241 c 382.023 48.534 382.855 
45.89 383.344 43.253 c 383.828 40.655 384.391 38.382 384.598 38.202 c 
384.805 38.023 390.504 37.749 397.266 37.593 c 404.023 37.441 411.77 
37.066 414.473 36.761 c 417.18 36.456 421.852 36.026 424.855 35.808 c 
427.859 35.589 431.793 35.245 433.598 35.046 c 435.398 34.851 437.551 
34.628 438.375 34.558 c 439.203 34.484 439.941 34.374 440.016 34.316 c 
440.09 34.253 443.594 34.136 447.801 34.05 c 452.008 33.964 456.828 
33.769 458.516 33.616 c 460.199 33.46 468.672 33.097 477.34 32.808 c 
488.758 32.425 493.934 32.058 496.129 31.476 c 498.555 30.835 500.691 
30.734 506.941 30.964 c 511.629 31.136 514.727 31.066 514.727 30.784 c 
514.727 30.515 519.035 30.319 525.109 30.319 c 531.664 30.319 535.488 
30.14 535.488 29.823 c 535.488 29.53 537.492 29.327 540.406 29.327 c 
543.32 29.327 545.324 29.124 545.324 28.827 c 545.324 28.515 541.137 
28.331 533.852 28.331 c 524.227 28.331 522.379 28.218 522.379 27.616 c 
522.379 27.222 522.578 26.784 522.824 26.648 c 523.527 26.249 538.879 
26.194 540.512 26.585 c 541.781 26.886 541.973 26.788 541.898 25.894 c 
541.82 24.952 541.473 24.851 538.379 24.851 c 536.469 24.851 534.941 
24.632 534.941 24.355 c 534.941 24.038 537.891 23.972 543.273 24.175 c 
551.605 24.491 l 550.152 23.425 l 549.328 22.823 548.32 22.491 547.832 
22.663 c 547.277 22.859 546.961 22.698 546.961 22.222 c 546.961 21.171 
549.027 20.823 553 21.202 c 555.699 21.456 556.539 21.37 557.016 20.78 
c 557.344 20.374 558.355 19.78 559.254 19.464 c 560.895 18.894 l 
559.023 19.194 l 555.727 19.726 544.805 19.605 544.176 19.03 c 543.75 
18.644 544.406 18.386 546.504 18.12 c 548.664 17.847 549.137 17.655 
548.328 17.382 c 547.316 17.042 547.336 16.999 548.602 16.773 c 549.352 
16.64 547.324 16.499 544.094 16.464 c 540.863 16.425 538.223 16.222 
538.223 16.015 c 538.223 15.804 533.086 15.718 526.809 15.819 c 519.254 
15.944 515.051 15.827 514.379 15.472 c 513.563 15.038 514.012 14.921 
516.641 14.874 c 518.445 14.843 521.148 14.663 522.648 14.476 c 525.383 
14.136 l 523.523 13.526 l 521.281 12.784 518.742 12.73 518.281 13.409 c 
518.094 13.683 517.648 13.905 517.293 13.901 c 516.898 13.898 516.969 
13.702 517.461 13.409 c 518.172 12.991 518.164 12.929 517.391 12.921 c 
516.902 12.917 515.563 12.558 514.41 12.12 c 512.645 11.448 512.465 
11.253 513.258 10.847 c 513.77 10.585 514.418 10.499 514.695 10.655 c 
514.973 10.812 515.34 10.734 515.508 10.484 c 516.102 9.609 510.328 
9.441 469.383 9.136 c 428.547 8.835 417.352 9.089 398.156 10.753 c 
394.438 11.077 394.41 11.069 395.031 10.007 c 395.555 9.12 395.449 
8.679 394.414 7.39 c 393.727 6.538 392.645 5.659 392.004 5.433 c 
391.293 5.183 390.84 4.585 390.832 3.874 c 390.809 1.944 389.715 -0.02 
388.672 -0.001 c 388.141 0.011 386.359 0.456 384.719 0.995 c h
508.488 12.913 m 508.617 12.913 508.719 13.265 508.719 13.694 c 508.719 
14.804 506.867 14.37 506.621 13.21 c 506.473 12.503 506.648 12.351 
507.344 12.593 c 507.848 12.769 508.363 12.913 508.488 12.913 c h
539.996 20.206 m 539.621 20.343 539.008 20.343 538.633 20.206 c 538.254 
20.069 538.563 19.956 539.313 19.956 c 540.066 19.956 540.371 20.069 
539.996 20.206 c h
373.227 67.624 m 373.227 67.898 372.965 68.12 372.645 68.12 c 372.328 
68.12 372.219 67.898 372.406 67.624 c 372.59 67.351 372.852 67.124 
372.984 67.124 c 373.117 67.124 373.227 67.351 373.227 67.624 c h
365.863 72.444 m 364.996 73.839 l 365.324 72.101 l 365.508 71.144 
365.816 69.909 366.016 69.362 c 366.324 68.495 366.395 68.542 366.555 
69.71 c 366.652 70.444 366.344 71.679 365.863 72.444 c h
357.711 75.944 m 357.531 76.109 357.402 75.816 357.426 75.292 c 357.449 
74.71 357.578 74.593 357.754 74.991 c 357.91 75.351 357.895 75.776 
357.711 75.944 c h
517.063 10.23 m 517.242 10.394 517.715 10.413 518.109 10.269 c 518.543 
10.109 518.414 9.991 517.777 9.968 c 517.203 9.948 516.879 10.066 
517.063 10.23 c h
526.348 14.21 m 526.531 14.374 527.004 14.39 527.398 14.249 c 527.832 
14.089 527.703 13.972 527.066 13.948 c 526.492 13.925 526.168 14.042 
526.348 14.21 c h
541.637 15.261 m 542.461 15.374 543.813 15.374 544.641 15.261 c 545.469 
15.144 544.789 15.054 543.137 15.054 c 541.484 15.054 540.809 15.144 
541.637 15.261 c h
563.352 22.187 m 564.105 22.335 565.125 22.784 565.621 23.187 c 566.156 
23.624 566.656 23.726 566.852 23.437 c 567.031 23.171 568.223 23.05 
569.5 23.167 c 571.387 23.343 571.59 23.288 570.582 22.886 c 569.902 
22.612 567.688 22.284 565.668 22.155 c 563.645 22.026 562.602 22.042 
563.352 22.187 c h
521.668 53.448 m 521.465 54.542 521.297 55.886 521.293 56.433 c 521.293 
57.269 521.41 57.218 522.047 56.105 c 522.539 55.249 522.672 54.198 
522.422 53.12 c 522.039 51.46 l 521.668 53.448 l h
519.504 64.941 m 519.832 71.05 519.18 72.628 517.938 68.734 c 517.188 
66.378 l 516.781 70.609 l 516.559 72.933 516.398 78.667 516.426 83.355 
c 516.457 89.046 516.273 91.987 515.875 92.214 c 515.461 92.444 515.273 
91.394 515.273 88.788 c 515.273 86.722 515.059 85.03 514.793 85.03 c 
514.148 85.03 513.656 86.812 513.625 89.257 c 513.594 91.468 512.055 
94.714 512.016 92.644 c 512.004 92.046 511.789 91.437 511.535 91.296 c 
510.914 90.944 510.359 108.468 510.359 128.413 c 510.359 143.976 
510.309 144.765 509.371 144.495 c 508.824 144.339 506.059 144.644 
503.223 145.171 c 500.387 145.702 496.098 146.292 493.695 146.484 c 
491.289 146.675 489.176 147.038 489 147.292 c 488.598 147.862 482.66 
148.671 478.766 148.683 c 476.961 148.691 475.559 148.968 475.063 
149.417 c 474.422 150.003 472.801 150.109 466.719 149.964 c 462.57 
149.862 458.828 149.98 458.406 150.222 c 457.848 150.546 458.09 150.687 
459.273 150.734 c 460.219 150.769 460.504 150.894 459.949 151.026 c 
458.094 151.468 459.641 152.175 462.449 152.167 c 464.605 152.159 
465.09 152.03 464.465 151.628 c 463.82 151.214 463.938 151.155 465.012 
151.359 c 465.762 151.503 468.527 151.773 471.156 151.964 c 473.785 
152.155 475.938 152.503 475.938 152.741 c 475.938 152.976 475.629 
153.202 475.254 153.241 c 474.879 153.284 474.203 153.362 473.754 
153.417 c 473.301 153.472 471.641 153.554 470.066 153.593 c 467.277 
153.663 466.219 154.347 468.152 154.823 c 468.68 154.952 467.758 
155.046 466.105 155.026 c 462.395 154.987 461.02 155.312 459.66 156.546 
c 458.613 157.499 458.621 157.519 460.168 158.351 c 461.027 158.816 
461.734 159.413 461.734 159.679 c 461.734 159.944 462.609 160.109 
463.68 160.042 c 464.75 159.98 465.793 160.159 466 160.448 c 466.316 
160.89 468.391 161.319 472.668 161.823 c 473.125 161.874 473.848 
162.116 474.277 162.359 c 474.77 162.636 475.133 162.581 475.27 162.21 
c 475.57 161.382 477.313 161.484 478.125 162.37 c 478.496 162.78 
479.496 163.116 480.344 163.116 c 481.191 163.116 482.008 163.3 482.16 
163.526 c 482.313 163.749 481.285 163.937 479.871 163.937 c 468.203 
163.952 467.402 164.605 478.754 164.847 c 483.066 164.941 488.191 
165.245 490.145 165.526 c 492.098 165.808 496.152 166.3 499.156 166.616 
c 505.535 167.292 506.816 167.003 509.016 164.378 c 509.836 163.394 
510.602 162.675 510.719 162.78 c 510.949 162.991 513.172 184.878 
513.984 194.948 c 514.152 196.999 514.652 199.573 515.102 200.667 c 
515.547 201.761 516.16 203.776 516.465 205.144 c 517.309 208.968 
517.492 209.3 518.047 207.991 c 518.801 206.21 519.961 206.175 522.68 
207.843 c 525.09 209.327 525.219 209.351 525.492 208.39 c 525.652 
207.835 526.063 207.378 526.402 207.378 c 526.742 207.378 527.68 
207.062 528.484 206.679 c 529.801 206.054 530.047 206.081 530.891 
206.929 c 532.313 208.362 533.5 207.234 533.141 204.792 c 532.984 
203.737 533.094 202.905 533.387 202.905 c 533.68 202.905 533.762 
203.128 533.578 203.401 c 533.391 203.675 533.5 203.898 533.816 203.898 
c 534.141 203.898 534.398 202.905 534.398 201.663 c 534.398 200.417 
534.652 199.425 534.977 199.425 c 535.293 199.425 535.418 199.624 
535.25 199.87 c 535.086 200.112 535.289 200.433 535.699 200.577 c 
536.789 200.956 537.289 196.737 536.609 192.859 c 536.309 191.136 
535.828 184.241 535.539 177.538 c 535.254 170.839 534.883 165.019 
534.723 164.609 c 534.559 164.198 534.152 160.73 533.816 156.898 c 
533.219 150.081 532.961 147.948 532.738 147.948 c 532.676 147.948 
532.566 146.046 532.5 143.718 c 532.305 137.194 531.113 118.316 530.461 
111.39 c 530.137 107.972 529.848 102.206 529.813 98.585 c 529.781 94.96 
529.57 91.995 529.344 91.995 c 529.117 91.995 528.934 88.636 528.934 
84.534 c 528.934 80.085 528.723 77.073 528.406 77.073 c 528.117 77.073 
527.801 75.003 527.703 72.472 c 527.602 69.941 527.469 71.956 527.406 
76.948 c 527.313 84.64 527.168 86.026 526.477 86.026 c 525.805 86.026 
525.637 85.062 525.559 80.679 c 525.504 77.737 525.516 74.601 525.582 
73.71 c 525.664 72.601 525.48 72.128 524.996 72.218 c 524.57 72.296 
524.164 73.437 523.973 75.085 c 523.742 77.073 523.629 76.206 523.563 
71.913 c 523.484 66.835 523.359 66.093 522.684 66.605 c 522.25 66.933 
522.031 67.519 522.195 67.909 c 522.547 68.741 521.523 68.874 520.973 
68.066 c 520.77 67.761 520.633 66.085 520.676 64.335 c 520.719 62.589 
520.52 61.155 520.238 61.155 c 519.957 61.155 519.609 60.765 519.465 
60.288 c 519.324 59.808 519.34 61.901 519.504 64.941 c h
514.727 97.198 m 514.727 97.644 514.406 97.819 513.91 97.644 c 513.465 
97.487 513.23 97.159 513.398 96.913 c 513.875 96.214 514.727 96.398 
514.727 97.198 c h
469.582 156.667 m 469.211 157.003 468.574 157.015 467.699 156.698 c 
466.457 156.245 466.492 156.214 468.262 156.183 c 469.555 156.163 
469.969 156.312 469.582 156.667 c h
425.785 65.073 m 425.395 65.296 424.742 66.46 424.332 67.667 c 423.926 
68.874 422.789 71.409 421.805 73.304 c 420.02 76.745 l 421.828 78.12 l 
423.563 79.441 423.625 79.601 423.273 82.015 c 423.035 83.632 423.105 
84.534 423.469 84.534 c 423.781 84.534 424.035 83.566 424.035 82.378 c 
424.035 80.347 424.188 80.136 426.703 78.651 c 429.578 76.956 431.066 
75.273 431.277 73.48 c 431.375 72.644 431.094 72.312 430.18 72.191 c 
429.383 72.085 428.953 71.687 428.953 71.054 c 428.953 70.519 428.582 
69.948 428.133 69.792 c 427.66 69.628 427.297 68.847 427.273 67.944 c 
427.219 65.714 426.637 64.593 425.785 65.073 c h
428.473 75.218 m 427.934 75.702 427.871 75.648 428.168 74.937 c 428.371 
74.448 428.68 74.171 428.848 74.323 c 429.016 74.476 428.848 74.878 
428.473 75.218 c h
515.414 71.355 m 515.406 72.448 515.512 72.952 515.648 72.48 c 515.785 
72.003 515.793 71.109 515.66 70.487 c 515.531 69.87 515.418 70.261 
515.414 71.355 c h
438.297 72.058 m 437.859 72.308 437.66 72.929 437.832 73.523 c 437.996 
74.089 437.813 74.788 437.422 75.081 c 436.457 75.812 436.105 78.444 
436.711 80.441 c 436.988 81.355 437.117 82.48 436.996 82.944 c 436.609 
84.413 435.398 81.026 435.43 78.566 c 435.449 76.937 435.316 76.55 
434.945 77.14 c 434.328 78.12 432.66 83.984 432.703 85.03 c 432.719 
85.441 432.891 89.468 433.086 93.984 c 433.426 101.819 433.375 102.425 
431.973 107.409 c 431.164 110.276 430.301 112.851 430.051 113.128 c 
429.586 113.648 425.676 122.062 425.676 122.554 c 425.676 122.706 
425.902 122.831 426.18 122.831 c 426.457 122.831 427.473 120.933 
428.434 118.612 c 429.395 116.292 430.418 114.526 430.707 114.691 c 
431.035 114.874 431.008 115.191 430.641 115.526 c 430.313 115.823 
430.047 116.476 430.047 116.972 c 430.047 117.472 429.172 119.46 
428.105 121.39 c 426.617 124.081 426 124.776 425.469 124.374 c 424.941 
123.976 424.551 124.269 423.867 125.577 c 422.848 127.519 423.43 
127.898 424.797 126.187 c 426.234 124.394 423.793 128.796 420.648 
133.659 c 419.109 136.046 417.68 138.112 417.473 138.249 c 417.266 
138.386 416.668 139.323 416.148 140.331 c 415.453 141.675 414.809 
142.21 413.742 142.323 c 412.5 142.452 412.242 142.769 411.977 144.464 
c 411.77 145.796 411.031 147.073 409.754 148.319 c 407.523 150.495 
406.922 150.671 407.645 148.941 c 408.344 147.269 407.965 147.37 
405.648 149.484 c 404.035 150.948 403.566 151.151 403.02 150.605 c 
401.91 149.491 390.676 132.394 389.063 129.362 c 387.445 126.327 
386.176 125.042 385.289 125.542 c 384.984 125.71 384.078 124.89 383.27 
123.718 c 378.742 117.144 371.551 109.327 361.5 100.054 c 352.438 
91.691 350.355 90.003 349.363 90.23 c 348.707 90.382 347.504 90.273 
346.691 89.991 c 344.547 89.249 344.488 89.714 346.566 90.929 c 348.539 
92.077 348.406 92.265 346.172 91.491 c 343.746 90.655 343.543 91.499 
345.738 93.265 c 349.047 95.925 346.859 95.241 343.207 92.476 c 341.387 
91.097 338.789 89.534 337.43 89.007 c 334.973 88.046 334.961 88.046 
335.535 89.023 c 335.852 89.562 335.93 90.003 335.707 90.003 c 334.918 
90.003 340.215 94.581 343.859 97.05 c 345.887 98.425 347.547 99.776 
347.547 100.058 c 347.547 100.339 346.746 100.023 345.77 99.355 c 
344.793 98.691 341.535 96.597 338.531 94.706 c 334.645 92.257 333.32 
91.624 333.941 92.499 c 334.422 93.179 336.371 94.73 338.27 95.944 c 
340.168 97.159 341.477 98.23 341.172 98.319 c 340.871 98.413 337.941 
96.831 334.66 94.808 c 331.383 92.784 327.836 90.968 326.785 90.776 c 
325.734 90.585 324.441 90.316 323.918 90.183 c 321.945 89.679 323.098 
90.952 327.379 94.015 c 329.805 95.753 332.145 97.796 332.578 98.554 c 
333.008 99.316 334.051 100.261 334.895 100.655 c 335.738 101.054 
338.379 103.206 340.758 105.444 c 343.141 107.679 345.629 109.694 
346.285 109.929 c 346.945 110.159 347.465 110.753 347.441 111.241 c 
347.418 111.734 347.59 112.585 347.82 113.132 c 348.047 113.679 346.387 
112.335 344.129 110.148 c 341.871 107.96 339.863 106.304 339.676 
106.468 c 339.484 106.636 341.289 108.929 343.684 111.566 c 348.969 
117.39 354.648 124.593 354.648 125.476 c 354.648 125.831 358.715 
131.355 363.688 137.749 c 372.723 149.374 l 370.926 149.905 l 368.332 
150.667 368.715 151.39 371.859 151.679 c 374.578 151.925 374.598 
151.941 376.418 155.069 c 377.422 156.8 378.105 158.343 377.934 158.499 
c 377.762 158.655 376.496 158.394 375.121 157.913 c 373.746 157.437 
372.105 157.167 371.473 157.319 c 370.332 157.589 367.699 156.636 
366.113 155.374 c 365.656 155.011 364.48 154.589 363.496 154.429 c 
361.711 154.144 l 362.66 155.46 l 363.609 156.78 l 361.797 155.925 l 
358.684 154.46 358.742 155.816 361.879 157.78 c 364.676 159.534 368.762 
161.39 369.484 161.234 c 369.68 161.194 370.141 161.487 370.508 161.89 
c 371.078 162.515 370.91 162.573 369.332 162.304 c 368.316 162.128 
366.98 161.569 366.359 161.062 c 365.074 160.003 364.207 159.827 
364.852 160.753 c 365.09 161.097 365.289 161.597 365.293 161.866 c 
365.305 162.366 370.457 165.179 374.809 167.058 c 376.129 167.632 
377.559 168.487 377.988 168.964 c 378.418 169.441 378.59 169.511 
378.367 169.124 c 378.063 168.589 378.211 168.503 378.984 168.776 c 
379.547 168.972 381.121 169.269 382.488 169.441 c 384.719 169.714 
386.273 170.636 386.32 171.714 c 386.328 171.929 385.047 171.952 
383.469 171.765 c 380.602 171.429 l 381.695 172.577 l 382.785 173.73 
382.785 173.73 381.695 173.359 c 380.379 172.913 380.461 172.925 
378.414 173.034 c 376.977 173.116 376.914 173.175 377.898 173.542 c 
378.516 173.769 380.914 174.234 383.227 174.573 c 386.934 175.116 
387.43 175.312 387.414 176.241 c 387.406 176.819 386.676 178.163 
385.793 179.226 c 384.66 180.585 384.324 181.39 384.656 181.933 c 
385.426 183.179 383.77 184.999 381.867 184.999 c 380.434 184.999 
380.273 185.151 380.43 186.362 c 380.617 187.851 381.703 188.276 
383.973 187.757 c 384.844 187.558 385.238 187.194 385.055 186.757 c 
384.895 186.378 385.094 185.816 385.5 185.511 c 386.648 184.644 387.008 
185.671 386.594 188.671 c 386.324 190.648 386.453 191.718 387.102 
192.862 c 387.582 193.71 387.977 195.21 387.977 196.198 c 387.977 
197.374 388.473 198.589 389.406 199.706 c 390.977 201.581 392.023 
201.851 392.797 200.589 c 393.465 199.507 395.078 200.077 395.078 
201.398 c 395.078 201.952 395.336 202.409 395.648 202.409 c 396.66 
202.409 400.242 200.554 401.316 199.468 c 401.926 198.859 402.75 
198.526 403.285 198.679 c 403.918 198.862 404.672 198.331 405.719 
196.956 c 406.551 195.859 407.43 195.073 407.668 195.21 c 407.906 
195.343 408.395 194.648 408.75 193.667 c 409.109 192.683 410.453 
190.796 411.742 189.476 c 413.031 188.155 414.391 186.234 414.762 
185.206 c 415.691 182.648 415.141 174.167 413.797 170.312 c 412.75 
167.312 l 414.891 166.085 l 416.066 165.409 418.133 163.683 419.48 
162.245 c 420.832 160.808 422.277 159.636 422.695 159.636 c 423.121 
159.636 423.324 159.331 423.16 158.941 c 423 158.558 423.129 158.097 
423.453 157.913 c 423.773 157.734 424.035 157.163 424.035 156.648 c 
424.035 155.519 425.863 153.648 429.059 151.511 c 430.352 150.644 
431.41 149.601 431.41 149.191 c 431.41 148.78 431.719 148.499 432.094 
148.569 c 432.469 148.636 432.715 148.413 432.641 148.069 c 432.566 
147.73 432.828 147.511 433.227 147.585 c 433.625 147.659 433.813 
147.523 433.648 147.276 c 433.48 147.03 433.984 146.198 434.77 145.425 
c 435.555 144.655 436.551 143.339 436.98 142.503 c 437.77 140.964 
438.145 140.37 440.309 137.253 c 440.973 136.296 441.516 135.194 
441.516 134.808 c 441.516 134.417 441.855 133.745 442.27 133.316 c 
442.684 132.882 444.645 128.835 446.625 124.323 c 451.688 112.792 
452.582 108.175 452.348 94.843 c 452.172 84.757 l 449.699 81.538 l 
447.324 78.448 445.891 75.612 445.891 74.011 c 445.891 73.597 445.496 
73.261 445.02 73.261 c 444.348 73.261 444.223 73.593 444.477 74.741 c 
444.844 76.413 444.023 77.651 442.82 77.23 c 441.918 76.917 439.879 
73.546 439.879 72.366 c 439.879 71.503 439.414 71.413 438.297 72.058 c 
h
434.734 113.257 m 434.102 113.831 433.777 112.933 434.211 111.8 c 
434.648 110.644 l 434.848 111.808 l 434.961 112.444 434.906 113.097 
434.734 113.257 c h
427.629 130.987 m 426.254 133.288 425.129 135.452 425.129 135.804 c 
425.129 136.554 421.473 141.788 418.129 145.831 c 416.055 148.339 
415.531 148.694 413.891 148.694 c 412.859 148.694 412.016 148.917 
412.016 149.191 c 412.016 149.464 411.648 149.687 411.195 149.687 c 
410.746 149.687 410.375 150.011 410.375 150.409 c 410.375 151.214 
405.57 154.429 405.059 153.964 c 404.883 153.804 406.98 151.601 409.723 
149.069 c 412.461 146.538 415.82 143.023 417.184 141.261 c 419.473 
138.3 420.813 137.683 418.762 140.534 c 417.914 141.71 417.918 141.843 
418.84 142.628 c 419.762 143.421 419.797 143.417 419.457 142.534 c 
419.207 141.882 419.742 140.823 421.219 139.054 c 422.383 137.651 
424.754 134.323 426.484 131.659 c 428.215 128.991 429.746 126.808 
429.883 126.808 c 430.02 126.808 429.008 128.691 427.629 130.987 c h
410.605 154.21 m 410.035 154.78 409.074 155.468 408.469 155.734 c 
407.867 155.999 408.23 155.538 409.285 154.706 c 411.516 152.944 412.07 
152.734 410.605 154.21 c h
416.113 157.148 m 415.926 157.421 415.668 157.644 415.535 157.644 c 
415.402 157.644 415.293 157.421 415.293 157.148 c 415.293 156.874 
415.555 156.651 415.871 156.651 c 416.191 156.651 416.297 156.874 
416.113 157.148 c h
386.609 173.062 m 386.801 173.343 386.355 173.562 385.582 173.562 c 
384.832 173.562 384.066 173.335 383.879 173.062 c 383.688 172.78 
384.137 172.566 384.906 172.566 c 385.66 172.566 386.426 172.788 
386.609 173.062 c h
356.375 86.026 m 356.375 86.71 356.5 86.987 356.648 86.648 c 356.801 
86.304 356.801 85.745 356.648 85.405 c 356.5 85.062 356.375 85.343 
356.375 86.026 c h
363.273 87.019 m 363.406 87.839 363.609 88.511 363.727 88.511 c 363.844 
88.511 363.938 87.839 363.938 87.019 c 363.938 86.198 363.734 85.526 
363.484 85.526 c 363.238 85.526 363.141 86.198 363.273 87.019 c h
332.25 88.23 m 332.25 88.366 332.742 88.718 333.344 89.011 c 333.941 
89.304 334.434 89.429 334.434 89.292 c 334.434 89.155 333.941 88.804 
333.344 88.511 c 332.742 88.218 332.25 88.093 332.25 88.23 c h
417.809 133.112 m 415.891 134.995 415.922 136.491 417.855 135.37 c 
418.574 134.956 419.828 132.265 419.461 131.929 c 419.332 131.812 
418.59 132.347 417.809 133.112 c h
130.648 137.284 m 133.652 138.761 l 129.555 138.663 l 127.301 138.609 
124.797 138.737 123.984 138.952 c 122.957 139.222 122.137 139.097 
121.27 138.542 c 119.672 137.526 112.398 137.472 108.27 138.448 c 
106.605 138.839 104.824 138.98 104.191 138.765 c 103.477 138.523 
102.602 138.659 101.805 139.136 c 100.57 139.87 100.641 139.933 105.535 
142.343 c 108.277 143.694 110.398 144.909 110.25 145.046 c 110.098 
145.183 108.172 145.062 105.969 144.773 c 102.25 144.288 85.848 143.601 
85.848 143.933 c 85.848 144.011 90.703 145.378 96.637 146.964 c 106.988 
149.734 109.727 150.679 107.402 150.687 c 106.816 150.687 105.621 
151.026 104.754 151.441 c 103.328 152.116 103.035 152.112 101.824 
151.39 c 100.855 150.812 100.316 150.741 99.887 151.132 c 98.953 151.98 
97.465 151.776 96.305 150.64 c 95.539 149.894 94.656 149.628 93.141 
149.694 c 91.984 149.745 90.73 149.761 90.355 149.734 c 89.207 149.655 
89.598 148.776 90.902 148.511 c 91.578 148.37 90.164 148.331 87.762 
148.425 c 83.93 148.573 81.652 148.366 76.695 147.417 c 76.02 147.288 
75.469 146.851 75.469 146.444 c 75.469 145.569 75.758 145.589 72.152 
146.214 c 69.559 146.659 68.738 146.566 64.836 145.378 c 62.422 144.64 
59.09 143.995 57.438 143.944 c 55.785 143.894 50.867 143.284 46.512 
142.589 c 38.656 141.335 32.074 140.538 33.125 140.972 c 34.176 141.405 
63.203 147.101 66.18 147.46 c 69.766 147.89 71.645 148.484 71.645 
149.179 c 71.645 149.456 70.883 149.687 69.957 149.687 c 68.266 149.687 
l 69.684 151.218 l 70.461 152.058 71.098 152.956 71.098 153.206 c 
71.098 153.46 72.613 153.667 74.469 153.667 c 77.844 153.667 l 76.559 
154.909 l 75.625 155.816 74.711 156.151 73.188 156.151 c 71.691 156.151 
71.098 156.366 71.098 156.898 c 71.098 157.312 70.609 157.644 70.004 
157.644 c 68.766 157.644 68.602 157.128 69.566 156.253 c 70.078 155.788 
69.449 155.655 66.738 155.655 c 63.258 155.655 l 64.539 156.898 l 
65.824 158.144 l 54.027 158.144 l 42.832 158.144 41.543 158.038 28.746 
156.132 c 18.652 154.628 15.078 154.261 14.527 154.679 c 13.984 155.089 
12.746 155.073 9.793 154.62 c 7.594 154.284 4.918 154.159 3.848 154.343 
c 1.906 154.671 -0.445 155.882 0.074 156.284 c 0.91 156.933 33.941 
163.691 38.211 164.085 c 41.008 164.343 45.754 165.054 48.758 165.663 c 
56.262 167.191 54.789 167.706 42.453 167.882 c 34.832 167.987 32.098 
168.206 30.473 168.831 c 29.215 169.312 27.75 169.515 26.832 169.331 c 
25.77 169.116 24.496 169.394 22.703 170.222 c 20.113 171.421 l 27.984 
172.046 l 32.316 172.394 36.711 172.995 37.754 173.386 c 38.797 173.78 
45.434 174.999 52.504 176.101 c 69.254 178.714 107.879 185.972 108.309 
186.589 c 108.492 186.855 111.223 187.472 114.375 187.96 c 117.527 
188.448 122.789 189.651 126.063 190.632 c 129.336 191.612 133.926 
192.648 136.262 192.933 c 140.027 193.39 142.441 194.273 157.445 
200.694 c 175.781 208.538 182.566 211.952 191.02 217.585 c 196.156 
221.007 202.473 226.28 201.434 226.28 c 201.176 226.28 201.793 226.788 
202.809 227.409 c 203.82 228.034 205.832 229.878 207.273 231.515 c 
208.715 233.148 210.629 234.808 211.52 235.198 c 212.414 235.589 
213.145 236.218 213.145 236.597 c 213.145 236.972 213.371 237.155 
213.648 236.999 c 213.926 236.843 214.602 237.237 215.152 237.874 c 
215.699 238.511 216.383 239.015 216.672 238.995 c 216.957 238.98 
217.996 240.198 218.98 241.71 c 220.465 243.987 220.688 244.706 220.301 
245.937 c 219.879 247.284 219.797 247.331 219.375 246.425 c 218.961 
245.534 218.883 245.589 218.625 246.921 c 218.379 248.187 217.746 
248.679 214.434 250.175 c 203.316 255.194 183.676 256.05 164.336 
252.355 c 162.281 251.96 159.34 251.503 157.805 251.331 c 156.078 
251.14 152.762 250.015 149.105 248.382 c 143.199 245.741 l 140.664 
246.53 l 138.699 247.14 137.906 247.187 137.121 246.741 c 136.254 
246.249 135.641 246.562 132.785 248.948 c 130.184 251.128 129.191 
251.671 128.219 251.448 c 127.184 251.21 126.895 251.425 126.48 252.737 
c 126.121 253.882 125.32 254.628 123.535 255.484 c 122.188 256.132 
119.613 257.972 117.809 259.577 c 113.82 263.124 109.945 265.323 
106.117 266.218 c 103.262 266.882 103.25 266.894 104.516 267.667 c 
105.789 268.448 l 103.711 268.812 l 101.152 269.257 100.633 268.941 
90.172 260.648 c 85.996 257.339 82.449 254.628 82.293 254.628 c 82.133 
254.628 85.512 258.46 89.801 263.136 c 94.086 267.816 97.594 271.788 
97.594 271.964 c 97.594 272.144 97.035 272.359 96.352 272.448 c 95.113 
272.609 l 96.316 273.495 l 97.52 274.382 l 96.078 275.241 l 94.313 
276.296 95.27 276.862 83.102 267.55 c 73.73 260.378 l 75.965 259.515 l 
79.426 258.175 78.84 256.71 73.645 253.726 c 69.48 251.331 69.184 
251.261 66.699 252.109 c 64.762 252.769 l 64.887 256.062 l 65.012 
259.355 l 68.738 262.034 l 73.406 265.39 92.289 277.648 102.922 284.222 
c 107.344 286.96 110.961 289.308 110.965 289.444 c 110.965 289.581 
109.676 290.066 108.105 290.523 c 106.531 290.976 104.184 291.898 
102.887 292.566 c 100.531 293.788 l 104.527 294.124 l 110.969 294.667 
118.836 295.96 119.723 296.624 c 121.848 298.214 126.777 300.566 
130.801 301.901 c 139.598 304.823 145.211 308.663 162.113 323.327 c 
172.051 331.948 177.84 337.339 178.465 338.55 c 178.996 339.581 180.332 
341.433 181.438 342.663 c 187.105 348.984 187.977 352.941 184.641 
357.206 c 183.219 359.023 182.145 358.941 181.543 356.96 c 181.113 
355.55 181 355.472 180.648 356.339 c 178.094 362.667 176.156 364.304 
169.164 366.054 c 166.762 366.651 164.391 367.339 163.895 367.577 c 
163.27 367.878 162.895 367.784 162.68 367.273 c 162.512 366.866 161.992 
366.534 161.535 366.534 c 160.363 366.534 160.48 367.523 161.652 
367.562 c 162.402 367.585 162.352 367.691 161.41 368.034 c 160.73 
368.28 159.504 368.288 158.574 368.042 c 157.441 367.749 156.863 
367.796 156.703 368.194 c 156.559 368.562 155.953 368.335 155.059 
367.589 c 153.688 366.441 153.461 366.417 147.684 366.757 c 141.375 
367.128 137.203 366.562 137.203 365.327 c 137.203 364.554 133.426 
363.96 132.531 364.593 c 131.637 365.23 125.754 363.085 126.102 362.253 
c 126.387 361.577 125.797 361.37 124.031 361.523 c 123.547 361.566 
120.441 360.39 117.129 358.909 c 113.09 357.105 110.082 356.105 107.992 
355.866 c 106.277 355.671 104.773 355.605 104.648 355.722 c 104.316 
356.023 112.418 361.241 115.602 362.776 c 117.422 363.651 118.781 
363.987 119.734 363.796 c 120.711 363.601 121.617 363.843 122.625 
364.562 c 125.84 366.866 125.203 366.796 109.613 363.109 c 98.332 
360.444 96.348 359.601 92.914 356.007 c 90.145 353.109 l 91.957 353.073 
l 92.953 353.054 94.262 352.855 94.863 352.632 c 96.984 351.847 93.199 
351.464 90.199 352.163 c 87.879 352.706 87.34 352.702 86.961 352.14 c 
86.246 351.089 82 351.843 76.977 353.905 c 72.211 355.866 72.266 
355.878 70.988 352.734 c 70.207 350.819 68.566 350.569 67.859 352.265 c 
67.594 352.894 66.004 354.359 64.32 355.515 c 62.637 356.671 61.262 
357.694 61.262 357.788 c 61.262 357.882 61.844 359.159 62.555 360.632 c 
63.266 362.101 64.031 363.839 64.258 364.499 c 64.66 365.671 64.617 
365.687 62.098 365.37 c 60.688 365.194 58.805 364.581 57.914 364.003 c 
56.316 362.968 53.172 362.999 53.883 364.042 c 54.055 364.296 56.391 
365.843 59.078 367.476 c 62.402 369.503 64.465 370.437 65.547 370.409 c 
66.43 370.386 68.91 371.234 71.109 372.312 c 75.34 374.382 76.801 
375.722 75.59 376.409 c 74.711 376.909 84.465 381.855 96.773 387.144 c 
107.484 391.749 114.055 393.991 119.996 395.069 c 125.398 396.054 
159.934 398.995 161.324 398.593 c 161.883 398.429 167.813 398.234 
174.496 398.151 c 186.648 398.007 l 197.301 394.175 l 208.672 390.085 
217.516 386.14 217.516 385.155 c 217.516 384.472 221.176 381.343 
223.035 380.437 c 224.281 379.827 l 222.973 378.866 l 221.668 377.901 l 
224.531 375.577 l 227.789 372.929 231.723 367.417 231.723 365.495 c 
231.723 364.784 232.215 363.8 232.813 363.304 c 234.234 362.136 234.207 
360.343 232.75 359.019 c 231.191 357.597 232.223 356.976 235.691 
357.241 c 238.047 357.421 238.328 357.327 238.617 356.284 c 238.984 
354.944 237.555 352.597 235.039 350.401 c 233.777 349.304 233.359 
348.499 233.359 347.163 c 233.359 345.878 232.664 344.441 230.832 
341.952 c 228.367 338.612 228.316 338.464 228.859 336.296 c 229.418 
334.069 l 222.512 325.831 l 215.852 317.89 215.457 317.523 211.488 
315.581 c 209.223 314.472 206.824 313.062 206.16 312.444 c 205.133 
311.495 204.781 311.417 203.875 311.933 c 202.984 312.441 202.547 
312.366 201.238 311.484 c 200.25 310.816 199.395 310.577 198.938 
310.835 c 198.398 311.136 199.063 311.933 201.441 313.843 c 205.418 
317.038 220.234 330.835 220.242 331.347 c 220.258 332.429 218.188 
331.23 212.031 326.593 c 208.285 323.776 203.469 319.73 201.32 317.605 
c 199.133 315.441 197.262 313.972 197.063 314.265 c 196.855 314.566 
193.621 312.577 189.336 309.511 c 185.281 306.612 182.035 304.171 
182.125 304.093 c 182.211 304.011 184.418 303.605 187.023 303.191 c 
189.629 302.776 192.504 302.089 193.41 301.663 c 194.32 301.234 195.297 
300.886 195.586 300.886 c 196.375 300.886 204.941 307.37 205.016 
308.026 c 205.051 308.339 205.027 308.917 204.969 309.312 c 204.879 
309.878 205.02 309.909 205.629 309.448 c 206.258 308.972 207.324 
309.655 211.277 313.058 c 213.957 315.362 216.773 317.382 217.535 
317.538 c 218.293 317.698 220.016 318.491 221.359 319.3 c 224.301 
321.077 225.164 321.151 225.164 319.624 c 225.164 318.714 222.297 
316.39 211.543 308.569 c 204.047 303.124 198.008 298.581 198.121 298.48 
c 198.234 298.378 200.371 297.98 202.867 297.597 c 215.129 295.718 
226.453 289.804 238.766 278.851 c 245.672 272.706 248.598 269.335 
248.996 267.05 c 249.398 264.765 250.543 263.609 251.523 264.499 c 
251.871 264.816 252.906 265.066 253.82 265.058 c 255.234 265.042 
255.652 264.722 256.582 262.944 c 257.555 261.073 257.855 260.862 
259.359 260.991 c 262.156 261.234 263.375 259.882 263.984 255.874 c 
264.277 253.96 264.656 252.058 264.832 251.648 c 265.32 250.499 265.055 
240.222 264.477 237.866 c 263.844 235.296 264.535 233.398 266.332 
232.776 c 267.047 232.526 267.797 231.933 268 231.456 c 268.531 230.187 
267.285 225.202 266.145 224.042 c 265.605 223.495 264.984 222.042 
264.77 220.808 c 264.551 219.577 263.852 217.339 263.215 215.835 c 
262.578 214.331 262.051 212.839 262.043 212.523 c 262.035 212.206 
261.539 211.444 260.945 210.827 c 259.859 209.71 l 261.098 209.995 l 
262.09 210.222 261.793 209.734 259.598 207.546 c 258.086 206.042 
256.855 204.644 256.855 204.433 c 256.855 204.222 257.406 203.796 
258.082 203.484 c 259.313 202.917 l 258.117 203.034 l 257.129 203.132 
255.73 201.581 250.16 194.23 c 244.789 187.136 243.082 185.226 241.832 
184.921 c 240.969 184.71 238.895 183.339 237.223 181.87 c 229.453 
175.058 222.254 170.116 211.234 164.026 c 199.488 157.538 191.496 
153.843 186.656 152.667 c 184.258 152.085 182.188 151.511 182.051 
151.39 c 181.918 151.269 182.25 150.874 182.789 150.519 c 183.688 
149.921 183.539 149.73 181.043 148.273 c 176.469 145.601 169.922 
143.753 159.426 142.175 c 154.066 141.366 149.152 140.398 148.496 
140.023 c 147.48 139.433 129.652 135.718 128.168 135.784 c 127.879 
135.796 128.996 136.472 130.648 137.284 c h
126.824 147.542 m 126.824 148.523 125.504 148.089 125.281 147.038 c 
125.16 146.46 125.363 146.3 125.965 146.511 c 126.438 146.675 126.824 
147.14 126.824 147.542 c h
77.402 149.222 m 78.043 150.167 77.109 150.401 76.156 149.534 c 75.305 
148.757 75.305 148.694 76.137 148.694 c 76.637 148.694 77.203 148.933 
77.402 149.222 c h
117.766 152.476 m 119.094 152.941 118.789 153.667 117.262 153.667 c 
116.414 153.667 115.898 153.386 115.898 152.921 c 115.898 152.116 
116.398 151.999 117.766 152.476 c h
124.227 152.991 m 125.355 153.159 126.277 153.507 126.277 153.757 c 
126.277 154.452 121.207 154.011 120.949 153.292 c 120.695 152.597 
121.262 152.546 124.227 152.991 c h
86.336 154.472 m 87.094 154.612 87.438 154.898 87.156 155.151 c 86.43 
155.796 78.605 155.034 78.336 154.292 c 78.164 153.823 78.949 153.741 
81.57 153.948 c 83.473 154.101 85.617 154.339 86.336 154.472 c h
92.633 154.964 m 93.84 155.386 93.711 156.151 92.438 156.151 c 91.297 
156.151 90.574 155.499 91.145 154.98 c 91.57 154.589 91.566 154.589 
92.633 154.964 c h
252.766 262.569 m 252.285 263.417 251.652 263.98 251.367 263.816 c 
250.844 263.523 251.441 262.077 252.672 260.667 c 253.652 259.546 
253.719 260.894 252.766 262.569 c h
103.383 279.624 m 106.508 281.8 106.902 282.976 104.012 281.499 c 
102.809 280.882 101.117 279.851 100.254 279.21 c 98.785 278.112 98.762 
278.042 99.875 278.023 c 100.527 278.015 102.105 278.734 103.383 
279.624 c h
178.918 305.585 m 179.711 306.253 180.762 307.007 181.254 307.257 c 
181.809 307.538 181.93 307.831 181.57 308.03 c 181.258 308.21 180.672 
308.069 180.273 307.722 c 179.871 307.374 178.871 306.694 178.043 
306.214 c 176.598 305.37 176.035 304.366 177.008 304.366 c 177.266 
304.366 178.125 304.913 178.918 305.585 c h
171.949 308.417 m 174.418 310.187 175.313 311.097 174.836 311.366 c 
174.297 311.671 174.285 312.034 174.785 313.034 c 175.199 313.862 
175.227 314.312 174.863 314.312 c 174.555 314.312 171.707 313.198 
168.531 311.835 c 162.758 309.355 l 165.059 307.609 l 166.32 306.644 
167.586 305.859 167.863 305.859 c 168.141 305.859 169.98 307.011 
171.949 308.417 c h
184.789 309.374 m 186.215 310.296 186.965 311.827 185.996 311.827 c 
185.453 311.827 182.551 309.234 182.551 308.749 c 182.551 308.116 
183.074 308.265 184.789 309.374 c h
150.918 310.98 m 150.219 311.616 149.508 311.124 150.027 310.359 c 
150.227 310.062 150.641 309.96 150.949 310.132 c 151.32 310.343 151.313 
310.62 150.918 310.98 c h
180.91 311.077 m 181.613 311.761 182.023 312.472 181.824 312.655 c 
181.422 313.019 178.727 310.921 178.727 310.249 c 178.727 309.487 
179.621 309.827 180.91 311.077 c h
192.941 319.546 m 193.324 319.964 193.48 320.444 193.297 320.612 c 
192.898 320.976 191.293 319.862 191.293 319.226 c 191.293 318.542 
192.184 318.714 192.941 319.546 c h
184.191 320.734 m 184.191 320.98 183.699 321.066 183.098 320.925 c 
182.496 320.78 182.004 320.577 182.004 320.472 c 182.004 320.366 
182.496 320.28 183.098 320.28 c 183.699 320.28 184.191 320.484 184.191 
320.734 c h
197.035 323.241 m 198.242 323.937 203.035 327.007 207.688 330.062 c 
214.82 334.737 216.387 336.003 217.66 338.101 c 218.492 339.472 221.012 
342.737 223.262 345.359 c 227.379 350.155 227.777 350.819 226.836 
351.347 c 226.199 351.706 216.426 342.952 216.426 342.023 c 216.426 
340.952 213.969 339.116 212.996 339.456 c 211.762 339.886 209.969 
336.784 211.047 336.085 c 211.621 335.71 211.59 335.659 210.906 335.859 
c 210.316 336.026 208.313 334.429 204.707 330.917 c 201.777 328.062 
198.461 325.296 197.332 324.773 c 196.207 324.249 194.852 323.222 
194.324 322.487 c 193.305 321.073 193.285 321.069 197.035 323.241 c h
217.992 344.823 m 218.324 345.191 218.441 345.636 218.246 345.812 c 
217.836 346.187 216.426 345.241 216.426 344.593 c 216.426 343.937 
217.301 344.066 217.992 344.823 c h
230.316 365.581 m 229.258 366.648 223.004 369.706 222.613 369.351 c 
222.453 369.206 222.863 367.609 223.523 365.8 c 224.293 363.694 224.652 
361.687 224.527 360.226 c 224.324 357.937 l 227.742 361.335 l 230.875 
364.448 231.09 364.804 230.316 365.581 c h
218.313 366.776 m 220.672 369.55 220.777 369.796 219.863 370.409 c 
219.324 370.773 218.328 370.976 217.652 370.862 c 216.348 370.64 
216.145 371.05 216.871 372.413 c 217.195 373.019 216.84 373.714 215.574 
374.933 c 213.832 376.616 l 213.215 373.401 l 212.313 368.679 212.441 
366.644 213.75 364.972 c 214.379 364.163 215.098 363.569 215.34 363.651 
c 215.582 363.734 216.922 365.14 218.313 366.776 c h
214.91 367.128 m 215.027 367.452 215.418 367.808 215.777 367.913 c 
216.176 368.034 216.297 367.808 216.094 367.323 c 215.711 366.421 
214.582 366.23 214.91 367.128 c h
226.426 369.339 m 226.617 369.515 226.652 369.843 226.5 370.066 c 
226.16 370.566 224.621 370.077 224.621 369.468 c 224.621 368.956 
225.906 368.866 226.426 369.339 c h
222.66 374.835 m 221.094 375.878 220.07 375.663 220.449 374.37 c 
220.633 373.753 220.785 373.077 220.789 372.866 c 220.793 372.655 
221.438 372.866 222.219 373.331 c 223.559 374.128 223.586 374.218 
222.66 374.835 c h
76.695 143.573 m 76.02 143.691 75.469 144.023 75.469 144.308 c 75.469 
144.605 75.996 144.702 76.695 144.53 c 77.371 144.366 78.109 144.226 
78.336 144.222 c 78.563 144.218 78.746 143.991 78.746 143.718 c 78.746 
143.444 78.563 143.253 78.336 143.288 c 78.109 143.327 77.371 143.452 
76.695 143.573 c h
82.57 143.718 m 81.871 144.132 81.891 144.202 82.707 144.21 c 83.23 
144.214 83.664 143.991 83.664 143.718 c 83.664 143.112 83.602 143.112 
82.57 143.718 c h
54.496 149.171 m 56.934 149.683 60.586 150.569 62.613 151.14 c 67.008 
152.374 67.043 152.378 66.18 151.429 c 65.656 150.855 65.648 150.519 
66.141 149.98 c 66.492 149.593 66.582 149.175 66.344 149.05 c 66.102 
148.925 62.34 148.691 57.984 148.53 c 50.063 148.237 l 54.496 149.171 l 
h
20.012 150.683 m 19.801 150.991 20.918 151.179 22.984 151.179 c 24.828 
151.179 26.297 150.96 26.297 150.683 c 26.297 150.409 24.957 150.183 
23.324 150.183 c 21.688 150.183 20.199 150.409 20.012 150.683 c h
37.359 151.456 m 35.98 152.378 36.566 152.55 39.934 152.218 c 42.918 
151.925 l 40.617 151.374 l 38.832 150.944 38.102 150.964 37.359 151.456 
c h
51.43 154.034 m 51.43 154.526 55.836 155.292 56.289 154.878 c 56.727 
154.48 56.047 154.21 53.73 153.874 c 52.32 153.667 51.43 153.73 51.43 
154.034 c h
73.297 154.64 m 72.855 154.898 72.637 155.234 72.809 155.39 c 73.238 
155.784 74.922 155.159 74.922 154.609 c 74.922 154.042 74.32 154.054 
73.297 154.64 c h
455.723 156.151 m 455.016 156.569 455.031 156.636 455.828 156.644 c 
456.336 156.648 456.902 156.425 457.09 156.151 c 457.516 155.523 
456.793 155.523 455.723 156.151 c h
290.766 223.171 m 290.789 223.378 294.539 225.249 299.098 227.327 c 
303.66 229.409 307.332 231.366 307.258 231.675 c 307.184 231.984 
308.414 232.819 309.988 233.538 c 313.859 235.3 320.23 238.866 320.23 
239.273 c 320.23 240.351 317.902 239.691 310.113 236.394 c 305.105 
234.273 299.168 232.171 296.191 231.464 c 293.336 230.788 290.508 
230.112 289.906 229.96 c 289.305 229.808 290.906 230.843 293.457 
232.265 c 319.191 246.554 322.32 248.714 320.719 251.046 c 318.977 
253.585 314.063 254.487 312.035 252.64 c 310.559 251.296 310.645 
250.921 312.719 249.714 c 315.293 248.214 314.148 248.429 310.398 
250.151 c 304.664 252.788 298.813 256.112 297.75 257.343 c 297.184 
257.999 295.844 258.8 294.777 259.12 c 293.707 259.441 291.887 260.64 
290.73 261.78 c 281.078 271.312 273.52 282.249 271.375 289.796 c 
270.375 293.304 270.18 303.124 271.098 303.64 c 271.418 303.823 271.531 
304.319 271.352 304.749 c 270.871 305.886 274.148 315.597 276.086 
318.788 c 278.52 322.796 282.66 327.749 285.848 330.46 c 288.41 332.644 
288.609 332.976 288.293 334.519 c 288.102 335.441 287.727 336.198 
287.461 336.198 c 287.195 336.198 284.898 337.984 282.363 340.171 c 
277.75 344.144 l 276.59 348.37 l 275.949 350.691 274.809 353.862 
274.055 355.413 c 272.684 358.237 l 274.344 363.581 l 278.738 377.694 
280.32 380.249 290.855 390.214 c 299.891 398.757 309.496 405.249 
315.555 406.905 c 318.352 407.671 332.836 410.316 336.699 410.769 c 
339.137 411.054 341.02 411.616 342.426 412.487 c 344.945 414.046 
345.832 414.089 348.492 412.792 c 350.418 411.855 352.34 411.87 353.023 
412.831 c 353.184 413.054 356.133 412.585 359.582 411.784 c 364.359 
410.679 366.531 410.405 368.715 410.636 c 371.207 410.898 371.859 
410.769 373.754 409.628 c 377.355 407.46 385.105 396.175 388.484 
388.183 c 390.508 383.398 390.691 381.401 388.703 385.831 c 387.93 
387.55 387.234 388.894 387.164 388.816 c 387.094 388.734 387.242 
386.878 387.496 384.691 c 388.098 379.484 389.531 373.886 390.66 
372.319 c 391.434 371.249 391.5 370.3 391.129 365.694 c 389.727 348.355 
383.43 340.577 361.207 328.734 c 357.449 326.73 354.262 325.007 354.125 
324.901 c 353.984 324.796 355.461 323.448 357.402 321.901 c 364.207 
316.48 367.641 312.757 371.281 306.855 c 373.219 303.706 375.309 
300.745 375.926 300.269 c 376.648 299.714 377.051 298.804 377.051 
297.734 c 377.051 296.694 377.465 295.726 378.148 295.159 c 380.395 
293.308 380.816 290.351 380.313 279.929 c 380.055 274.632 379.457 
268.636 378.98 266.605 c 377.859 261.816 376.637 258.054 375.898 
257.116 c 375.406 256.499 375.363 256.526 375.633 257.288 c 377.055 
261.265 376.262 261.913 373.531 259.007 c 372.449 257.855 370.551 
255.222 369.316 253.159 c 366.148 247.866 362.93 244.628 357.762 241.53 
c 355.297 240.054 352.215 238.03 350.906 237.034 c 348.086 234.89 
335.68 227.866 332.434 226.573 c 328.383 224.964 328.691 226.023 
332.852 228.015 c 336.965 229.98 343.301 233.96 343.633 234.78 c 343.73 
235.03 343.246 235.234 342.547 235.234 c 341.453 235.234 341.574 
235.413 343.461 236.562 c 344.656 237.296 346.695 238.675 347.992 
239.632 c 349.863 241.015 350.18 241.46 349.531 241.792 c 348.953 
242.085 346.625 240.964 341.566 237.948 c 334.758 233.89 332.551 
233.097 334.016 235.234 c 334.375 235.757 334.555 236.284 334.414 
236.409 c 334.105 236.687 328.078 235.042 324.328 233.659 c 322.824 
233.105 320.824 232.48 319.883 232.269 c 318.941 232.054 315.406 
230.714 312.027 229.284 c 300.402 224.366 290.594 221.546 290.766 
223.171 c h
339.242 238.316 m 340.438 239.405 339.922 239.745 338.258 238.964 c 
337.359 238.538 336.621 238.085 336.621 237.956 c 336.621 237.468 
338.613 237.745 339.242 238.316 c h
338.805 242.144 m 339.965 242.441 340.027 242.542 339.211 242.827 c 
338.289 243.148 335.527 242.499 335.527 241.96 c 335.527 241.62 337.082 
241.706 338.805 242.144 c h
352.363 243.159 m 352.5 243.534 352.293 243.718 351.883 243.597 c 
351.488 243.476 351.059 243.085 350.926 242.726 c 350.789 242.351 
350.996 242.163 351.406 242.288 c 351.801 242.409 352.23 242.8 352.363 
243.159 c h
349.98 251.612 m 350.156 251.866 350.074 252.202 349.797 252.355 c 
349.523 252.507 349.16 252.3 348.988 251.894 c 348.648 251.085 349.469 
250.855 349.98 251.612 c h
326.207 252.941 m 326.34 253.062 326.082 253.495 325.633 253.901 c 
325.07 254.417 324.273 254.546 323.051 254.323 c 321.348 254.011 
321.316 253.968 322.234 253.046 c 322.914 252.359 323.582 252.179 
324.574 252.405 c 325.34 252.577 326.074 252.819 326.207 252.941 c h
335.867 263.706 m 339.98 267.597 342.629 270.78 342.637 271.839 c 
342.645 272.359 343.254 274.523 344 276.648 c 346.461 283.667 346.418 
284.952 343.41 293.991 c 341.113 300.886 340.563 302.058 339.324 
302.636 c 338.539 303.007 336.27 304.651 334.277 306.296 c 329.238 
310.456 328.906 310.577 326.211 309.327 c 319.48 306.202 307.117 292.05 
307.117 287.472 c 307.117 284.066 309.266 280.89 314.969 275.862 c 
318.012 273.179 319.965 271.222 319.309 271.511 c 316.734 272.648 
316.871 271.831 319.758 268.847 c 321.328 267.222 323.48 265.839 326.82 
264.316 c 329.457 263.105 331.777 261.89 331.965 261.609 c 332.547 
260.753 333 260.995 335.867 263.706 c h
352.004 331.128 m 349.309 331.312 346.629 329.991 347.582 328.948 c 
348.07 328.413 348.742 328.538 351.203 329.632 c 354.227 330.976 l 
352.004 331.128 l h
321.77 349.456 m 329.918 353.671 344.27 361.726 344.27 362.081 c 344.27 
363.101 343.016 363.011 340.813 361.835 c 336.754 359.671 337.047 
360.409 342.035 364.921 c 347.855 370.187 348.309 371.273 345.941 
374.28 c 345.02 375.444 344.27 376.862 344.27 377.437 c 344.27 378.218 
343.926 378.472 342.871 378.472 c 341.949 378.472 341.605 378.671 
341.863 379.05 c 342.137 379.452 341.863 379.526 340.941 379.304 c 
340.215 379.128 339.441 378.98 339.215 378.976 c 338.988 378.972 
338.805 378.144 338.805 377.136 c 338.805 376.128 338.395 373.976 
337.895 372.351 c 336.984 369.398 l 336.02 371.112 l 334.191 374.359 
334.031 374.347 327.809 370.612 c 319.305 365.503 314.879 360.597 
313.949 355.241 c 313.602 353.253 313.711 353.026 316.164 350.644 c 
317.582 349.261 318.848 348.132 318.977 348.132 c 319.109 348.132 
320.367 348.73 321.77 349.456 c h
334.359 359.093 m 335.066 359.632 335.898 360.069 336.207 360.069 c 
336.516 360.069 336.141 359.624 335.379 359.077 c 333.582 357.788 
332.66 357.804 334.359 359.093 c h
347.422 363.46 m 347.75 364.355 346.621 364.167 346.238 363.261 c 
346.035 362.776 346.156 362.55 346.555 362.671 c 346.914 362.78 347.305 
363.132 347.422 363.46 c h
344.68 380.339 m 344.813 380.698 344.441 380.96 343.801 380.96 c 
342.605 380.96 341.887 380.312 342.48 379.769 c 343.031 379.269 344.418 
379.628 344.68 380.339 c h
280.895 227.773 m 280.895 228.046 281.262 228.269 281.711 228.269 c 
282.164 228.269 282.531 228.046 282.531 227.773 c 282.531 227.499 
282.164 227.276 281.711 227.276 c 281.262 227.276 280.895 227.499 
280.895 227.773 c h
283.625 228.269 m 283.625 228.542 283.855 228.769 284.137 228.769 c 
284.422 228.769 284.805 228.542 284.992 228.269 c 285.176 227.995 
284.945 227.773 284.477 227.773 c 284.008 227.773 283.625 227.995 
283.625 228.269 c h
326.238 228.167 m 326.238 228.667 330.09 230.401 330.457 230.066 c 
330.602 229.937 329.707 229.362 328.477 228.792 c 327.246 228.222 
326.238 227.941 326.238 228.167 c h
330.609 234.21 m 330.609 234.499 330.855 234.737 331.156 234.737 c 
331.457 234.737 331.703 234.636 331.703 234.515 c 331.703 234.398 
331.457 234.159 331.156 233.991 c 330.855 233.819 330.609 233.921 
330.609 234.21 c h
271.605 237.472 m 270.918 239.71 270.301 240.257 269.781 239.089 c 
269.629 238.745 269.488 239.901 269.461 241.659 c 269.43 244.245 
269.105 245.355 267.777 247.503 c 266.352 249.796 266.262 250.155 
267.094 250.155 c 267.621 250.155 268.879 250.616 269.891 251.179 c 
270.902 251.737 271.797 252.128 271.883 252.046 c 272.609 251.339 
273.789 245.843 273.789 243.171 c 273.789 239.171 273.246 235.234 
272.695 235.234 c 272.473 235.234 271.984 236.241 271.605 237.472 c h
94.043 256.816 m 94.043 257.984 94.25 258.105 99.371 259.96 c 100.711 
260.448 100.027 258.487 98.355 257.069 c 96.207 255.241 94.043 255.112 
94.043 256.816 c h
194.57 308.226 m 194.57 308.769 196.801 309.96 197.18 309.616 c 197.352 
309.46 197.023 309.003 196.441 308.605 c 195.27 307.796 194.57 307.655 
194.57 308.226 c h
153.059 319.05 m 153.438 319.468 153.863 319.706 154 319.581 c 154.379 
319.237 153.609 318.292 152.949 318.292 c 152.586 318.292 152.629 
318.577 153.059 319.05 c h
172.172 344.437 m 172.172 344.593 172.426 345.151 172.734 345.679 c 
173.578 347.109 174.441 346.859 173.711 345.398 c 173.16 344.296 
172.172 343.679 172.172 344.437 c h
61.984 375.827 m 59.316 376.319 59.027 378.511 61.289 381.128 c 62.789 
382.859 63.941 382.804 64.707 380.96 c 65.047 380.14 65.699 379.468 
66.152 379.468 c 66.605 379.468 68.375 380.253 70.082 381.21 c 71.789 
382.171 73.945 383.093 74.867 383.261 c 76.551 383.569 l 75.941 381.98 
l 75.605 381.109 74.566 379.347 73.625 378.066 c 71.914 375.737 l 
67.547 375.671 l 65.141 375.636 62.641 375.706 61.984 375.827 c h
390.199 377.355 m 390.234 378.566 390.293 378.609 390.707 377.726 c 
391.348 376.366 391.348 375.987 390.707 375.987 c 390.406 375.987 
390.18 376.601 390.199 377.355 c h
230.445 376.816 m 229.879 377.331 230.02 378.972 230.629 378.972 c 
230.93 378.972 231.176 378.409 231.176 377.726 c 231.176 376.425 
231.051 376.265 230.445 376.816 c h
219.703 386.679 m 219.324 387.097 219.262 387.425 219.57 387.425 c 
219.867 387.425 220.422 387.089 220.793 386.679 c 221.176 386.265 
221.234 385.933 220.93 385.933 c 220.629 385.933 220.078 386.269 
219.703 386.679 c h
75.496 391.878 m 73.941 393.288 74.094 394.558 76.047 396.585 c 77.84 
398.444 81.754 400.034 85.938 400.605 c 88.16 400.909 88.543 400.819 
89.324 399.808 c 90.191 398.679 90.145 398.636 85.43 395.886 c 82.805 
394.359 79.746 392.601 78.637 391.984 c 76.613 390.855 l 75.496 391.878 
l h
55.797 392.151 m 55.797 392.562 56.043 392.898 56.344 392.898 c 56.645 
392.898 56.891 392.562 56.891 392.151 c 56.891 391.741 56.645 391.405 
56.344 391.405 c 56.043 391.405 55.797 391.741 55.797 392.151 c h
92.688 391.917 m 94.496 394.577 114.82 399.491 128.461 400.566 c 
132.016 400.843 l 129.008 400.069 l 97.68 391.995 91.855 390.687 92.688 
391.917 c h
133.516 400.187 m 131.871 400.792 133.082 401.347 135.977 401.312 c 
139.082 401.273 139.098 401.265 137.477 400.589 c 135.77 399.874 
134.672 399.765 133.516 400.187 c h
142.121 401.312 m 142.121 401.55 142.488 401.87 142.941 402.026 c 
143.391 402.187 143.762 402.12 143.762 401.886 c 143.762 401.651 
143.391 401.327 142.941 401.171 c 142.488 401.015 142.121 401.077 
142.121 401.312 c h
364.484 415.261 m 364.484 415.526 364.852 415.616 365.305 415.456 c 
365.754 415.3 366.121 415.081 366.121 414.976 c 366.121 414.866 365.754 
414.78 365.305 414.78 c 364.852 414.78 364.484 414.995 364.484 415.261 
c h
347.934 419.753 m 347.625 420.831 347.941 420.976 349.121 420.3 c 
349.535 420.062 349.703 419.616 349.496 419.312 c 348.922 418.464 
348.25 418.651 347.934 419.753 c h
347.934 419.753 m f
Q
showpage
%%Trailer
count op_count sub {pop} repeat
countdictstack dict_count sub {end} repeat
cairo_eps_state restore
%%EOF
